{
  "project_info": {
    "project_number": "512170998383",
    "firebase_url": "https://aguasan-70c67.firebaseio.com",
    "project_id": "aguasan-70c67",
    "storage_bucket": "aguasan-70c67.appspot.com"
  },
  "client": [
    {
      "client_info": {
        "mobilesdk_app_id": "1:512170998383:android:383096652fe89f69f2eb9a",
        "android_client_info": {
          "package_name": "py.com.aguasan.app"
        }
      },
      "oauth_client": [
        {
          "client_id": "512170998383-vg0mf6kms5cf9fk6pv9mut0kf23hlaik.apps.googleusercontent.com",
          "client_type": 1,
          "android_info": {
            "package_name": "py.com.aguasan.app",
            "certificate_hash": "097e57e7afc54d72890f790d74413690e8d5174b"
          }
        },
        {
          "client_id": "512170998383-d5vml0h79cnl5rebr202su8a55aqudi0.apps.googleusercontent.com",
          "client_type": 3
        }
      ],
      "api_key": [
        {
          "current_key": "AIzaSyBB8lQy-G2C5Z4MvLqGJSxmmLagKw-pI34"
        }
      ],
      "services": {
        "appinvite_service": {
          "other_platform_oauth_client": [
            {
              "client_id": "512170998383-d5vml0h79cnl5rebr202su8a55aqudi0.apps.googleusercontent.com",
              "client_type": 3
            }
          ]
        }
      }
    }
  ],
  "configuration_version": "1"
}